<?xml version="1.0" encoding="UTF-8" standalone="no"?>
<svg
   xmlns:dc="http://purl.org/dc/elements/1.1/"
   xmlns:cc="http://creativecommons.org/ns#"
   xmlns:rdf="http://www.w3.org/1999/02/22-rdf-syntax-ns#"
   xmlns:svg="http://www.w3.org/2000/svg"
   xmlns="http://www.w3.org/2000/svg"
   viewBox="0 0 170.66667 170.66667"
   height="170.66667"
   width="170.66667"
   xml:space="preserve"
   id="svg2"
   version="1.1"><metadata
     id="metadata8"><rdf:RDF><cc:Work
         rdf:about=""><dc:format>image/svg+xml</dc:format><dc:type
           rdf:resource="http://purl.org/dc/dcmitype/StillImage" /></cc:Work></rdf:RDF></metadata><defs
     id="defs6"><clipPath
       id="clipPath18"
       clipPathUnits="userSpaceOnUse"><path
         id="path16"
         d="M 0,128 H 128 V 0 H 0 Z" /></clipPath></defs><g
     transform="matrix(1.3333333,0,0,-1.3333333,0,170.66667)"
     id="g10"><g
       id="g12"><g
         clip-path="url(#clipPath18)"
         id="g14"><g
           transform="translate(63.9998)"
           id="g20"><path
             id="path22"
             style="fill:#8200a0;fill-opacity:1;fill-rule:nonzero;stroke:none"
             d="m 0,0 c -35.29,0 -64,28.71 -64,64 0,35.29 28.71,64 64,64 C 35.29,128 64,99.29 64,64 64,28.71 35.29,0 0,0" /></g><g
           transform="translate(48.075,35.2432)"
           id="g24"><path
             id="path26"
             style="fill:#ffffff;fill-opacity:1;fill-rule:nonzero;stroke:none"
             d="m 0,0 c 16.03,-1.516 31.994,30.432 50.751,45.211 9.224,7.267 5.267,16.638 -6.644,10.205 C 27.136,46.249 15.128,24.901 7.08,18.326 -6.245,7.438 -15.391,43.88 -25.926,37.402 -34.325,32.237 -15.41,1.458 0,0" /></g></g></g></g></svg>