<?xml version="1.0" encoding="UTF-8" standalone="no"?>
<svg
   xmlns:dc="http://purl.org/dc/elements/1.1/"
   xmlns:cc="http://creativecommons.org/ns#"
   xmlns:rdf="http://www.w3.org/1999/02/22-rdf-syntax-ns#"
   xmlns:svg="http://www.w3.org/2000/svg"
   xmlns="http://www.w3.org/2000/svg"
   xmlns:sodipodi="http://sodipodi.sourceforge.net/DTD/sodipodi-0.dtd"
   xmlns:inkscape="http://www.inkscape.org/namespaces/inkscape"
   viewBox="0 0 243.03999 170.66667"
   height="170.66667"
   width="243.03999"
   xml:space="preserve"
   id="svg2"
   version="1.1"
   sodipodi:docname="A propos.svg"
   inkscape:version="0.92.3 (2405546, 2018-03-11)"><sodipodi:namedview
     pagecolor="#ffffff"
     bordercolor="#666666"
     borderopacity="1"
     objecttolerance="10"
     gridtolerance="10"
     guidetolerance="10"
     inkscape:pageopacity="0"
     inkscape:pageshadow="2"
     inkscape:window-width="1920"
     inkscape:window-height="1005"
     id="namedview14"
     showgrid="false"
     inkscape:zoom="1.3828125"
     inkscape:cx="118.98892"
     inkscape:cy="85.333336"
     inkscape:window-x="0"
     inkscape:window-y="0"
     inkscape:window-maximized="1"
     inkscape:current-layer="svg2" /><metadata
     id="metadata8"><rdf:RDF><cc:Work
         rdf:about=""><dc:format>image/svg+xml</dc:format><dc:type
           rdf:resource="http://purl.org/dc/dcmitype/StillImage" /></cc:Work></rdf:RDF></metadata><defs
     id="defs6" /><g
     style="fill:#ffffff;fill-opacity:1;opacity:1"
     id="g10"
     transform="matrix(-1.3333333,0,0,1.3333333,243.03999,7.6e-6)"><path
       inkscape:connector-curvature="0"
       d="m 143.051,0.039 h 39.228 v 19.615 h -39.228 z"
       style="fill:#ffffff;fill-opacity:1;fill-rule:nonzero;stroke:none;opacity:1"
       id="path12" /><path
       inkscape:connector-curvature="0"
       d="m 143.051,108.346 h 39.228 v 19.615 h -39.228 z"
       style="fill:#ffffff;fill-opacity:1;fill-rule:nonzero;stroke:none;opacity:1"
       id="path14" /><path
       inkscape:connector-curvature="0"
       d="M 162.666,0.039 H 182.28 V 127.961 H 162.666 Z"
       style="fill:#ffffff;fill-opacity:1;fill-rule:nonzero;stroke:none;opacity:1"
       id="path16" /><path
       inkscape:connector-curvature="0"
       d="M 0,0.039 H 39.229 V 19.654 H 0 Z"
       style="fill:#ffffff;fill-opacity:1;fill-rule:nonzero;stroke:none;opacity:1"
       id="path18" /><path
       inkscape:connector-curvature="0"
       d="m 0,108.346 h 39.229 v 19.615 H 0 Z"
       style="fill:#ffffff;fill-opacity:1;fill-rule:nonzero;stroke:none;opacity:1"
       id="path20" /><path
       inkscape:connector-curvature="0"
       d="M 0,0.039 H 19.615 V 127.961 H 0 Z"
       style="fill:#ffffff;fill-opacity:1;fill-rule:nonzero;stroke:none;opacity:1"
       id="path22" /><path
       inkscape:connector-curvature="0"
       d="m 81.333,0 h 19.614 V 91.381 H 81.333 Z"
       style="fill:#ffffff;fill-opacity:1;fill-rule:nonzero;stroke:none;opacity:1"
       id="path24" /><path
       inkscape:connector-curvature="0"
       d="m 81.333,108.385 h 19.614 V 128 H 81.333 Z"
       style="fill:#ffffff;fill-opacity:1;fill-rule:nonzero;stroke:none;opacity:1"
       id="path26" /></g></svg>