<?xml version="1.0" encoding="utf-8"?>
<!-- Generator: Adobe Illustrator 24.0.3, SVG Export Plug-In . SVG Version: 6.00 Build 0)  -->
<svg version="1.1" id="Calque_1" xmlns="http://www.w3.org/2000/svg" xmlns:xlink="http://www.w3.org/1999/xlink" x="0px" y="0px"
	 viewBox="0 0 128 83.8" style="enable-background:new 0 0 128 83.8;" xml:space="preserve">
<style type="text/css">
	.st0{fill:#8200A0;}
</style>
<g>
	<path class="st0" d="M125.8,16.1l-10-12.6c-2.9-3.7-8.2-4.6-12.2-2.1l0,0l-8.3,5.2c-2.7,1.7-6.1,1.8-8.9,0.3l-6.6-3.7
		c-4.6-2.6-10.1-2.3-14.5,0.5l-1.6,1l-1.5-0.9C57,0.6,50.7,0.3,45.3,3L43,4.2c-4.5,2.2-9.8,2.1-14.1-0.4l-1.6-0.9
		c-4.6-2.6-10.4-1.6-13.9,2.4L2.3,17.9c-1.7,1.9-2.5,4.3-2.3,6.9c0.2,2.5,1.4,4.8,3.3,6.4l9.9,8.3l-4.4,4.8
		c-1.6,1.8-2.5,4.1-2.4,6.5c0.1,2.4,1.1,4.7,2.9,6.3l0,0c1.3,1.1,2.7,1.9,4.3,2.3c-0.6,1.3-0.9,2.6-0.8,4.1c0.1,2.4,1.1,4.7,2.9,6.3
		l0,0c1.8,1.6,3.9,2.4,6.2,2.4c1.1,0,2.2-0.2,3.3-0.6c0.4,1.8,1.3,3.4,2.6,4.6l0,0c1.8,1.6,3.9,2.4,6.2,2.4c1.6,0,3.2-0.4,4.6-1.3
		c0.4,1.5,1.3,2.9,2.4,3.9l0,0c1.8,1.6,3.9,2.4,6.2,2.4c2.4,0,4.9-0.9,6.6-2.9l3.9-4.1l6.1,5.1c1.6,1.3,3.6,2,5.4,2
		c2.3,0,4.6-0.9,6.3-2.8c0.9-0.9,1.5-2.1,1.8-3.3l1.9,1.7c3.8,3.3,9.5,3,12.9-0.6c1.3-1.4,2.1-3.1,2.3-4.8c3.2,1,6.9,0.2,9.3-2.5
		c2.1-2.3,2.7-5.4,2-8.1c1.8-0.3,3.5-1.3,4.8-2.7c1.6-1.7,2.3-3.9,2.2-6.3c-0.1-2.3-1.2-4.4-2.9-5.9l-0.7-0.6l16.6-18.8
		C128.7,25.4,128.9,19.9,125.8,16.1z M12.6,53.4c-0.8-0.8-1.3-1.8-1.3-2.9c-0.1-1.1,0.4-2.2,1.1-3L22.2,37c0.8-0.9,1.9-1.3,3-1.3
		c1,0,2,0.4,2.8,1.1c0.8,0.8,1.3,1.8,1.3,2.9c0.1,1.1-0.4,2.2-1.1,3l-9.8,10.5c-0.8,0.8-1.8,1.3-2.9,1.3
		C14.5,54.5,13.4,54.1,12.6,53.4L12.6,53.4z M18.8,66c-0.8-0.8-1.3-1.8-1.3-2.9c-0.1-1.1,0.4-2.2,1.1-3l13.4-14.4
		c1.6-1.7,4.2-1.8,5.9-0.2c1.7,1.6,1.8,4.2,0.2,5.9l-2.8,2.9l0,0l-3.8,4l-7,7.4C23.2,67.5,20.5,67.6,18.8,66z M30.9,72.5
		c-0.8-0.8-1.3-1.8-1.3-2.9c-0.1-1.1,0.4-2.2,1.1-3l4.6-4.9l3.8-4c1.6-1.7,4.2-1.8,5.9-0.2c1.7,1.6,1.8,4.2,0.2,5.9L44,64.5
		l-3.6,3.9l0,0l-3.6,3.9C35.2,73.9,32.6,74,30.9,72.5z M50.1,77.4c-1.6,1.7-4.2,1.8-5.9,0.2c-1.7-1.6-1.8-4.2-0.2-5.9l4.7-5l0,0l0,0
		c0.8-0.8,1.8-1.3,2.9-1.3c1.1-0.1,2.2,0.4,3,1.1c1.7,1.6,1.8,4.2,0.2,5.9L50.1,77.4z M106.7,57.3c-0.6,0.8-1.6,1.1-2.5,1.2
		c-1,0.1-1.9-0.3-2.6-0.9L84.7,41.8c-1-0.9-2.6-0.9-3.5,0.1c-0.9,1-0.9,2.6,0.1,3.5l18.3,17.3c1.6,1.4,1.6,3.9,0.3,5.5
		c-1.4,1.6-3.9,1.8-5.6,0.3l-2.9-2.7c0,0,0,0-0.1-0.1L77.1,52.8c-1-0.9-2.6-0.8-3.5,0.2c-0.9,1-0.8,2.6,0.2,3.5L88,69.5
		c0.8,0.8,1.3,1.8,1.4,2.9c0.1,1.1-0.4,2.3-1.1,3.1c-1.6,1.7-4.3,1.9-6,0.3l-7.6-6.8c0,0,0,0-0.1-0.1l-7.2-6.6
		c-1-0.9-2.6-0.8-3.5,0.2c-0.9,1-0.8,2.6,0.2,3.5l7.3,6.5c0.7,0.6,1.1,1.5,1.2,2.4c0.1,0.9-0.3,1.9-0.9,2.6
		c-1.3,1.4-3.4,1.6-4.9,0.3l-6.5-5.4c1.1-3.3,0.3-7.1-2.4-9.6c-1.8-1.6-4.1-2.5-6.5-2.4c-0.1,0-0.2,0-0.3,0c0-2.4-0.9-4.8-2.9-6.6
		c-1.3-1.3-2.9-2-4.6-2.3c1.2-3.3,0.4-7.1-2.4-9.6c-2-1.8-4.6-2.6-7.1-2.4l0,0c0-2.4-1.1-4.7-2.9-6.3c-3.6-3.4-9.4-3.3-12.8,0.4
		l-2,2.2L6.4,27.4c-0.9-0.8-1.4-1.8-1.6-3c-0.1-1.2,0.3-2.3,1.1-3.3L17,8.5c1.9-2.3,5.3-2.8,7.8-1.3l1.6,0.9
		c5.8,3.3,12.8,3.4,18.7,0.5l2.4-1.2c3.8-1.8,8-1.8,11.6,0.3l-4.8,3.1c-2.1,1.4-3.6,3.6-4.1,6.1s0.1,5,1.5,7.1
		c2.6,3.8,7.8,5.1,11.8,3l3.6-1.8c2.8-1.4,6.1-1,8.4,1L103.6,50l0,0l2.6,2.3c0.8,0.6,1.2,1.5,1.3,2.5
		C107.7,55.6,107.4,56.6,106.7,57.3z M121.8,25.8l-16.6,18.9L79.1,22.4c-2.3-2-5.3-3-8.2-3c-1.9,0-3.9,0.4-5.7,1.4l-3.6,1.8
		c-1.9,1-4.3,0.4-5.6-1.4c-0.7-1-0.9-2.2-0.7-3.4c0.3-1.2,0.9-2.2,1.9-2.9L68,7.8c2.9-1.9,6.4-2,9.4-0.3l6.6,3.7
		c4.3,2.4,9.7,2.3,13.9-0.4l8.3-5.2c1.9-1.2,4.3-0.8,5.7,1l10,12.6C123.5,21.1,123.4,23.9,121.8,25.8z"/>
</g>
</svg>
