<?xml version="1.0" encoding="UTF-8" standalone="no"?>
<svg
   xmlns:dc="http://purl.org/dc/elements/1.1/"
   xmlns:cc="http://creativecommons.org/ns#"
   xmlns:rdf="http://www.w3.org/1999/02/22-rdf-syntax-ns#"
   xmlns:svg="http://www.w3.org/2000/svg"
   xmlns="http://www.w3.org/2000/svg"
   viewBox="0 0 170.66667 170.66667"
   height="170.66667"
   width="170.66667"
   xml:space="preserve"
   id="svg2"
   version="1.1"><metadata
     id="metadata8"><rdf:RDF><cc:Work
         rdf:about=""><dc:format>image/svg+xml</dc:format><dc:type
           rdf:resource="http://purl.org/dc/dcmitype/StillImage" /></cc:Work></rdf:RDF></metadata><defs
     id="defs6"><clipPath
       id="clipPath18"
       clipPathUnits="userSpaceOnUse"><path
         id="path16"
         d="M 0,128 H 128 V 0 H 0 Z" /></clipPath></defs><g
     transform="matrix(1.3333333,0,0,-1.3333333,0,170.66667)"
     id="g10"><g
       id="g12"><g
         clip-path="url(#clipPath18)"
         id="g14"><g
           transform="translate(116.5701,71.311)"
           id="g20"><path
             id="path22"
             style="fill:#ff2882;fill-opacity:1;fill-rule:nonzero;stroke:none"
             d="M 0,0 -0.057,-0.055 C -0.037,-0.037 -0.019,-0.019 0,0 m -105.098,-0.045 c 0.02,-0.02 0.04,-0.039 0.061,-0.059 z m 0.009,-14.522 c -0.018,-0.018 -0.037,-0.036 -0.057,-0.055 z m 48.597,-42.632 c 2.612,-0.266 5.228,-0.266 7.839,0 l 1.779,6.323 c 0.917,3.218 3.425,5.736 6.714,6.759 5.456,1.69 10.367,4.402 14.606,8.064 2.583,2.271 6.144,3.113 9.535,2.25 l 6.599,-1.706 c 0.755,1.001 1.488,2.054 2.147,3.145 0.65,1.08 1.23,2.21 1.76,3.355 l -3.54,3.37 c -3.035,2.909 -2.591,6.494 -2.266,9.112 0.229,1.854 0.514,4.16 0.194,7.394 -0.388,3.902 -0.821,5.497 -1.322,7.343 -0.227,0.833 -0.448,1.657 -0.661,2.612 l -0.025,0.114 c -0.663,3.247 0.412,6.567 2.877,8.882 l 4.75,4.554 c -0.532,1.149 -1.114,2.286 -1.768,3.372 -0.658,1.09 -1.391,2.143 -2.146,3.143 l -6.571,-1.699 c -3.422,-0.869 -6.98,-0.028 -9.563,2.244 -4.239,3.662 -9.15,6.373 -14.597,8.06 -3.298,1.026 -5.806,3.545 -6.718,6.741 l -1.784,6.344 c -2.611,0.267 -5.227,0.267 -7.839,0 l -1.779,-6.322 c -0.917,-3.219 -3.426,-5.738 -6.717,-6.761 -5.454,-1.689 -10.366,-4.401 -14.605,-8.063 -2.583,-2.271 -6.142,-3.112 -9.533,-2.25 l -6.6,1.706 c -0.755,-1 -1.488,-2.054 -2.145,-3.144 -0.654,-1.085 -1.236,-2.222 -1.769,-3.371 l 4.803,-4.602 c 2.413,-2.267 3.488,-5.587 2.824,-8.834 l -0.025,-0.114 c -0.604,-2.71 -0.909,-5.446 -0.909,-8.133 0,-2.687 0.305,-5.423 0.909,-8.133 l 0.025,-0.114 c 0.664,-3.246 -0.411,-6.567 -2.877,-8.883 l -4.75,-4.553 c 0.533,-1.149 1.115,-2.286 1.769,-3.37 0.657,-1.091 1.39,-2.144 2.145,-3.145 l 6.571,1.699 c 3.42,0.87 6.979,0.028 9.562,-2.241 4.239,-3.663 9.151,-6.376 14.598,-8.063 3.298,-1.024 5.807,-3.543 6.719,-6.741 z m 3.919,-14.112 c -3.898,0 -7.527,0.496 -10.869,1.031 l -4.591,0.737 -3.643,12.946 c -5.81,2.061 -11.146,5.014 -15.908,8.803 l -13.509,-3.493 -2.971,3.449 c -2.015,2.339 -4.348,5.181 -6.362,8.528 -1.96,3.253 -3.327,6.515 -4.512,9.555 l -1.632,4.184 9.903,9.49 c -0.516,2.922 -0.777,5.863 -0.777,8.77 0,2.908 0.261,5.848 0.777,8.769 l -9.903,9.491 1.632,4.185 c 1.185,3.04 2.552,6.302 4.512,9.555 2.015,3.346 4.347,6.188 6.362,8.527 l 2.971,3.449 13.509,-3.492 c 4.761,3.788 10.095,6.739 15.908,8.802 l 3.643,12.946 4.591,0.737 c 3.342,0.535 6.971,1.031 10.869,1.031 3.898,0 7.528,-0.496 10.87,-1.031 l 4.591,-0.737 3.642,-12.946 c 5.811,-2.061 11.147,-5.014 15.908,-8.802 l 13.509,3.492 2.972,-3.449 C 0.934,30.877 3.265,28.036 5.281,24.689 7.243,21.43 8.608,18.17 9.793,15.133 l 1.63,-4.184 -9.799,-9.393 c 0.564,-2.08 1.196,-4.484 1.682,-9.372 0.433,-4.356 0.092,-7.7 -0.167,-9.846 l 8.291,-7.892 -1.637,-4.2 c -1.185,-3.041 -2.552,-6.303 -4.512,-9.557 -2.016,-3.347 -4.347,-6.188 -6.362,-8.527 l -2.972,-3.449 -13.509,3.493 c -4.76,-3.788 -10.095,-6.74 -15.908,-8.802 l -3.642,-12.947 -4.591,-0.737 c -3.342,-0.535 -6.972,-1.031 -10.87,-1.031" /></g><g
           transform="translate(63.9969,81.9717)"
           id="g24"><path
             id="path26"
             style="fill:#ff2882;fill-opacity:1;fill-rule:nonzero;stroke:none"
             d="m 0,0 c -10.339,0 -18.75,-8.062 -18.75,-17.972 0,-9.909 8.411,-17.97 18.75,-17.97 10.34,0 18.752,8.061 18.752,17.97 C 18.752,-8.062 10.34,0 0,0 m 0,-49.837 c -18.333,0 -33.247,14.295 -33.247,31.865 0,17.571 14.914,31.866 33.247,31.866 18.333,0 33.248,-14.295 33.248,-31.866 0,-17.57 -14.915,-31.865 -33.248,-31.865" /></g></g></g></g></svg>