<?xml version="1.0" encoding="UTF-8" standalone="no"?>
<svg
   xmlns:dc="http://purl.org/dc/elements/1.1/"
   xmlns:cc="http://creativecommons.org/ns#"
   xmlns:rdf="http://www.w3.org/1999/02/22-rdf-syntax-ns#"
   xmlns:svg="http://www.w3.org/2000/svg"
   xmlns="http://www.w3.org/2000/svg"
   xmlns:sodipodi="http://sodipodi.sourceforge.net/DTD/sodipodi-0.dtd"
   xmlns:inkscape="http://www.inkscape.org/namespaces/inkscape"
   viewBox="0 0 175.666 175.666"
   height="175.666"
   width="175.666"
   xml:space="preserve"
   id="svg2"
   version="1.1"
   sodipodi:docname="squared_checkmark_green.svg"
   inkscape:version="0.92.3 (2405546, 2018-03-11)"><sodipodi:namedview
     pagecolor="#ffffff"
     bordercolor="#666666"
     borderopacity="1"
     objecttolerance="10"
     gridtolerance="10"
     guidetolerance="10"
     inkscape:pageopacity="0"
     inkscape:pageshadow="2"
     inkscape:window-width="1920"
     inkscape:window-height="1005"
     id="namedview14"
     showgrid="false"
     inkscape:snap-grids="true"
     inkscape:zoom="1.9555921"
     inkscape:cx="-26.8406"
     inkscape:cy="115.67671"
     inkscape:window-x="0"
     inkscape:window-y="0"
     inkscape:window-maximized="1"
     inkscape:current-layer="svg2"
     fit-margin-top="0"
     fit-margin-left="0"
     fit-margin-right="0"
     fit-margin-bottom="0" /><metadata
     id="metadata8"><rdf:RDF><cc:Work
         rdf:about=""><dc:format>image/svg+xml</dc:format><dc:type
           rdf:resource="http://purl.org/dc/dcmitype/StillImage" /><dc:title></dc:title></cc:Work></rdf:RDF></metadata><defs
     id="defs6"><clipPath
       id="clipPath18"
       clipPathUnits="userSpaceOnUse"><path
         id="path16"
         d="M 0,128 H 128 V 0 H 0 Z"
         inkscape:connector-curvature="0" /></clipPath><clipPath
       clipPathUnits="userSpaceOnUse"
       id="clipPath18-3"><path
         inkscape:connector-curvature="0"
         d="M 0,128 H 186.247 V 0 H 0 Z"
         id="path16-6" /></clipPath></defs><rect
     style="fill:none;fill-opacity:1;stroke:#1aaa55;stroke-width:9.7287817;stroke-miterlimit:10;stroke-dasharray:none;stroke-opacity:1"
     id="rect821"
     width="166.03722"
     height="166.03722"
     x="4.8143907"
     y="4.8143907" /><g
     id="g10"
     transform="matrix(0.59958531,0,0,-0.59958531,27.826391,126.24305)"
     style="fill:#1aaa55;fill-opacity:1"><g
       id="g12-7"
       style="fill:#1aaa55;fill-opacity:1"><g
         id="g14-5"
         clip-path="url(#clipPath18-3)"
         style="fill:#1aaa55;fill-opacity:1"><g
           id="g20-3"
           transform="translate(62.1876,0.1157)"
           style="fill:#1aaa55;fill-opacity:1"><path
             inkscape:connector-curvature="0"
             d="m 0,0 c 35.612,-3.368 71.077,67.605 112.747,100.438 20.49,16.144 11.7,36.962 -14.758,22.671 C 60.283,102.744 33.607,55.318 15.729,40.711 -13.873,16.524 -34.192,97.481 -57.596,83.09 -76.255,71.616 -34.234,3.238 0,0"
             style="opacity:1;fill:#1aaa55;fill-opacity:1;fill-rule:nonzero;stroke:none"
             id="path22-5" /></g></g></g></g></svg>