{
  "canonicalForm": {
    "writtenRep": "moumou",
    "places": {
      "edges": [
        {
          "node": {
            "name": "Cameroun",
            "__typename": "Country"
          },
          "__typename": "PlaceInterfaceEdge"
        }
      ],
      "__typename": "PlaceInterfaceConnection"
    },
    "__typename": "Form"
  },
  "partOfSpeech": {
    "prefLabel": "adjectif",
    "__typename": "Concept"
  },
  "__typename": "InvariablePOS",
  "entry": {
    "lexicographicResource": {
        "prefLabel": "Inventaire des particularités lexicales du français en Afrique noire",
      "__typename": "LexicographicResource"
    },
    "__typename": "Entry"
  }
}