{
  "canonicalForm": {
    "writtenRep": "moqueur",
    "places": {
      "edges": [
        {
          "node": {
            "name": "Cameroun",
            "__typename": "Country"
          },
          "__typename": "PlaceInterfaceEdge"
        },
        {
          "node": {
            "name": "Sénégal",
            "__typename": "Country"
          },
          "__typename": "PlaceInterfaceEdge"
        },
        {
          "node": {
            "name": "Côte d'Ivoire",
            "__typename": "Country"
          },
          "__typename": "PlaceInterfaceEdge"
        },
        {
          "node": {
            "name": "Togo",
            "__typename": "Country"
          },
          "__typename": "PlaceInterfaceEdge"
        },
        {
          "node": {
            "name": "Bénin",
            "__typename": "Country"
          },
          "__typename": "PlaceInterfaceEdge"
        },
        {
          "node": {
            "name": "Tchad",
            "__typename": "Country"
          },
          "__typename": "PlaceInterfaceEdge"
        }
      ],
      "__typename": "PlaceInterfaceConnection"
    },
    "__typename": "Form"
  },
  "partOfSpeech": {
    "prefLabel": null,
    "__typename": "Concept"
  },
  "__typename": "InflectablePOS",
  "number": null,
  "gender": {
    "prefLabel": "masculin",
    "__typename": "Concept"
  },
  "entry": {
    "lexicographicResource": {
      "value": "Inventaire des particularités lexicales du français en Afrique noire",
      "__typename": "LexicographicResource"
    },
    "__typename": "Entry"
  }
}
